0.00 0.21 -96809.21819233641 6.537553857604507
0.21 0.42 -96448.79622345344 6.518642054463271
0.42 0.63 -95739.86736945101 6.833228503848659
0.63 0.84 -94689.7599738898 7.735998431555345
0.84 1.05 -93289.46040294065 9.282466350676259
1.05 1.37 -138673.5656604691 5.021683910134016
1.37 1.52 -63263.28753534253 2.060496314006741
1.52 1.74 -90483.00458841234 3.292800492985407
1.74 1.95 -83595.9526868518 3.905768938406254
1.95 2.18 -88209.93468216254 2.575529181587626
2.18 2.50 -116318.4700144405 1.792925619549351
