0.00 0.21 -273434.3857770893 0.7873143116012216
0.21 0.42 -273757.3228588604 0.7277039278997108
0.42 0.63 -274342.6040121407 0.300185086845886
0.63 0.84 -275043.9456889202 1.264707431313582
0.84 1.05 -275681.1478036488 1.109974887047429
1.05 1.37 -420445.2769721618 1.695739375078119
1.37 1.52 -196480.341266557 0.6945914609823376
1.52 1.74 -285779.4416677402 0.3654825503472239
1.74 1.95 -267380.609549948 0.7211129869683646
1.95 2.18 -281530.9859734688 1.267906995664816
2.18 2.50 -357250.3155731353 0.9089549114578404
