0.00000 0.20000 0.40000 572.67870 0.09736
0.40000 0.60000 0.80000 567.32367 0.09745
0.80000 1.00000 1.20000 533.19632 0.08984
1.20000 1.40000 1.60000 444.67961 0.07317
1.60000 1.80000 2.00000 302.21946 0.04746
2.00000 2.20000 2.40000 124.75018 0.01929
