  0.000000   0.200000   0.400000 576.263842   0.034283
  0.400000   0.600000   0.800000 570.205573   0.039628
  0.800000   1.000000   1.200000 535.548442   0.033599
  1.200000   1.400000   1.600000 449.707014   0.041227
  1.600000   1.800000   2.000000 307.737883   0.036250
  2.000000   2.200000   2.400000 127.559935   0.021069
