0.0000e+00 1.0500e-01 2.1000e-01 5.7710e+02 1.2180e+00 1.0470e+01 5.6960e+02 1.0270e+01 1.4200e+00
2.1000e-01 3.1500e-01 4.2000e-01 5.7690e+02 1.2410e+00 1.0470e+01 5.6740e+02 1.0270e+01 1.4400e+00
4.2000e-01 5.2500e-01 6.3000e-01 5.8180e+02 1.0810e+00 1.0550e+01 5.7210e+02 1.0540e+01 1.4400e+00
6.3000e-01 7.3500e-01 8.4000e-01 5.8610e+02 1.1650e+00 1.0910e+01 5.7490e+02 1.0840e+01 1.4200e+00
8.4000e-01 9.4500e-01 1.0500e+00 5.8630e+02 1.2770e+00 1.1590e+01 5.8160e+02 1.1320e+01 1.4500e+00
1.0500e+00 1.2100e+00 1.3700e+00 5.9910e+02 1.0930e+00 1.2090e+01 5.8780e+02 1.2050e+01 9.8200e-01
1.3700e+00 1.4450e+00 1.5200e+00 5.9680e+02 2.2730e+00 1.2260e+01 5.8980e+02 1.2720e+01 1.9400e+00
1.5200e+00 1.6300e+00 1.7400e+00 6.0420e+02 1.2980e+00 1.2270e+01 5.9300e+02 1.3400e+01 1.3300e+00
1.7400e+00 1.8450e+00 1.9500e+00 6.0690e+02 1.6360e+00 1.2060e+01 5.9490e+02 1.4270e+01 1.3200e+00
1.9500e+00 2.0650e+00 2.1800e+00 5.9340e+02 1.4010e+00 1.1300e+01 5.8410e+02 1.4860e+01 1.1700e+00
2.1800e+00 2.3400e+00 2.5000e+00 5.5850e+02 1.2730e+00 1.0370e+01 5.5130e+02 1.5070e+01 7.8600e-01
