2.000  2.125    828.8812386502511 0.04449343611963741
2.125  2.250    2429.353605022647 0.734912285000064
2.250  2.375    3917.793261115844 1.933990285830987
2.375  2.500    5242.341978831389 1.752490454062354
2.500  2.625    6340.576341228322 3.155952958994931
2.625  2.750    7146.348389257559 0.3188880695424814
2.750  2.875    7607.852079363234 3.693794786116086
2.875  3.000    7692.829157512559 4.87138764322026
3.0    3.125    7392.519118435998 0.2655162489600116
3.125  3.250    6677.068037773057 0.2873097740102821
3.250  3.375    5499.402713437723 0.2622820861115542
3.375  3.500    4068.688526787475 1.73038486504538
3.500  3.625    2708.997908907481 2.880032710906107
3.625  3.750    1588.798678562819 0.646759492912679
3.750  3.875    796.6945628496419 0.2870601880941877
3.875  4.000    330.14 0.27
4.000  4.125	106.18 0.32
4.125  4.250    22.73462781231555 0.3359598562591337
