1.2 1.4 1554.90854498648 6.753272921848748
1.4 1.6 3651.817399900207 0.3058386592551869
1.6 1.8 6432.683091630233 1.202146778340648
1.8 2.0 9708.148704654888 9.649321054479515
2.0 2.2 13157.05553641905 2.1726510923163
2.2 2.4 16344.42318785726 3.095919840592614
2.4 2.8 32013.42471917662 6.796117730045808
2.8 3.2 15120.48865055753 3.098739568562451
3.2 3.6 3701.255135309062 3.275686205561215