  1.200000   1.400000 3723.643583   0.431117
  1.400000   1.600000 8186.431299   0.542088
  1.600000   1.800000 13692.074229   0.573586
  1.800000   2.000000 19857.395978   0.648125
  2.000000   2.200000 26105.889139   0.728105
  2.200000   2.400000 31688.676324   0.793940
  2.400000   2.800000 60290.449191   0.963596
  2.800000   3.200000 27277.453072   0.743332
  3.200000   3.600000 6464.793063   0.396564
