  0.000000   0.100000   0.200000 26237.026966   3.373266
  0.200000   0.300000   0.400000 26187.974701   3.426723
  0.400000   0.500000   0.600000 26054.700400   3.447210
  0.600000   0.700000   0.800000 25845.589310   3.501391
  0.800000   0.900000   1.000000 25585.836181   3.495715
  1.000000   1.100000   1.200000 25045.830570   3.501569
  1.200000   1.300000   1.400000 23442.715769   3.445844
  1.400000   1.500000   1.600000 20849.269150   3.280871
  1.600000   1.700000   1.800000 17444.504603   3.043826
  1.800000   1.900000   2.000000 13392.899728   2.792700
  2.000000   2.100000   2.200000 8911.708437   2.382363
  2.200000   2.300000   2.400000 4327.687535   1.745368
