  1.200000   1.400000   1.600000  98.910848   0.069276
  1.600000   1.800000   2.000000 216.490626   0.410276
  2.000000   2.200000   2.400000 347.579787   0.301999
  2.400000   2.600000   2.800000 338.571782   0.780941
  2.800000   3.000000   3.200000 135.340518   0.028162
  3.200000   3.400000   3.600000  21.790926   0.019780
