1.2    1.6    -136.5609079647097 0.003329555397556305
1.6    2.0    -290.9070482857416 0.005462371543785594   
2.0    2.4    -454.540388427013 0.03174818777068822
2.4    2.8    -441.0082938258143 0.01312565031116719
2.8    3.2    -182.7182240654119 0.00521843112343845
3.2    3.6    -29.49416270702466 0.0008616027749859256
