  1.200000   1.300000   1.400000 1531.912644   1.512961
  1.400000   1.500000   1.600000 3627.534340   2.023996
  1.600000   1.700000   1.800000 6454.845503   2.533774
  1.800000   1.900000   2.000000 9852.245012   2.934250
  2.000000   2.100000   2.200000 13541.996964   3.341390
  2.200000   2.300000   2.400000 17109.266540   3.710553
  2.400000   2.600000   2.800000 33672.251607   5.531119
  2.800000   3.000000   3.200000 15405.154428   3.301456
  3.200000   3.400000   3.600000 3726.339085   1.580029
