0.00000 0.10500 0.21000 146628.26964 20.74988
0.21000 0.31500 0.42000 146894.44744 17.57353
0.42000 0.52500 0.63000 147429.42233 56.29115
0.63000 0.73500 0.84000 148198.39636 19.92791
0.84000 0.94500 1.05000 148962.67889 26.55516
1.05000 1.21000 1.37000 228300.77879 37.56720
1.37000 1.44500 1.52000 107306.50941 16.86579
1.52000 1.63000 1.74000 156932.67298 20.68996
1.74000 1.84500 1.95000 148155.84926 21.96311
1.95000 2.06500 2.18000 157836.20553 29.34010
2.18000 2.34000 2.50000 203934.97395 34.05216
