1.2 1.4 128.3222717099736 0.02536083447506599
1.4 1.6 126.003915651802 0.01489311081046196
1.6 1.8 120.6558687768258 0.04409517657946083
1.8 2.0 114.4146609085971 0.04367514464641431
2.0 2.2 107.2083929025025 0.0415578570105879
2.2 2.4 98.92890009002326 0.07403135606320177
2.4 2.8 166.2887232905803 0.07202161993544109
2.8 3.2 111.8800269479733 0.06576475793531245
3.2 3.6 38.15269152935519 0.09346083507565339
