0.000000 0.105000 0.210000 0.991087 0.000083
0.210000 0.315000 0.420000 0.991274 0.000137
0.420000 0.525000 0.630000 0.991210 0.000162
0.630000 0.735000 0.840000 0.991828 0.000106
0.840000 0.945000 1.050000 0.990927 0.000112
1.050000 1.210000 1.370000 0.990588 0.000134
1.370000 1.445000 1.520000 0.991307 0.000074
1.520000 1.630000 1.740000 0.988483 0.000103
1.740000 1.845000 1.950000 0.986366 0.000087
1.950000 2.065000 2.180000 0.983029 0.000089
2.180000 2.340000 2.500000 0.978255 0.000102
