0.000000 0.105000 0.210000 0.993053 0.000048
0.210000 0.315000 0.420000 0.991277 0.000030
0.420000 0.525000 0.630000 0.992319 0.000092
0.630000 0.735000 0.840000 0.993109 0.000032
0.840000 0.945000 1.050000 0.993166 0.000052
1.050000 1.210000 1.370000 0.993739 0.000083
1.370000 1.445000 1.520000 0.995186 0.000041
1.520000 1.630000 1.740000 0.994705 0.000065
1.740000 1.845000 1.950000 0.995349 0.000050
1.950000 2.065000 2.180000 0.995482 0.000071
2.180000 2.340000 2.500000 0.994579 0.000086
