0 0.2 -30796.91418289177 0.005040058054873953
0.2 0.4 -30741.49303944855 0.01175660214357777
0.4 0.6 -30621.59107255732 0.00180563890535268
0.6 0.8 -30435.75295272342 0.002697102405363694
0.8 1 -30169.62058676398 0.02171571071085054
1 1.2 -29159.32361516295 0.01548617899243254
1.2 1.4 -26547.33871485673 0.02606220681627747
1.4 1.6 -23142.62463346602 0.01819784498366062
1.6 1.8 -19058.37800404794 0.00574191017949488
1.8 2 -14443.98941741015 0.01013228042393166
2 2.2 -9544.017053090078 0.0002020465926761972
2.2 2.4 -4645.005222712955 0.001935723335918738
