1.20000 1.30000 1.40000 1371.40945 1.88005
1.40000 1.50000 1.60000 3636.04001 4.05949
1.60000 1.70000 1.80000 6599.43515 6.72298
1.80000 1.90000 2.00000 10082.53787 9.88494
2.00000 2.10000 2.20000 13788.32649 13.03703
2.20000 2.30000 2.40000 17314.18691 15.66408
2.40000 2.60000 2.80000 34126.12556 30.01603
2.80000 3.00000 3.20000 15971.53574 13.55142
3.20000 3.40000 3.60000 4009.12037 3.22865
