0.00000 0.21000 519304.89800 7.49334
0.21000 0.42000 520014.96033 8.33709
0.42000 0.63000 521315.79140 8.96336
0.63000 0.84000 522917.80287 9.62680
0.84000 1.05000 524521.43332 10.18543
1.05000 1.37000 801096.96205 12.97958
1.37000 1.52000 375009.69989 9.03858
1.52000 1.74000 546631.56096 10.53510
1.74000 1.95000 513230.27397 10.06256
1.95000 2.18000 543118.52035 9.95284
2.18000 2.50000 695153.40598 10.73228
